﻿Log file open, 10/11/18 19:05:35
LogWindows: Failed to load 'aqProf.dll' (GetLastError=126)
LogWindows: File 'aqProf.dll' does not exist
LogWindows: Failed to load 'VtuneApi.dll' (GetLastError=126)
LogWindows: File 'VtuneApi.dll' does not exist
LogWindows: Failed to load 'VtuneApi32e.dll' (GetLastError=126)
LogWindows: File 'VtuneApi32e.dll' does not exist
LogPlatformFile: Not using cached read wrapper
LogInit: Display: RandInit(-2116799444) SRandInit(-2116799444).
LogTaskGraph: Started task graph with 5 named threads and 47 total threads with 3 sets of task threads.
LogStats: Stats thread started at 0.517202
LogD3D11RHI: Aftermath initialized
LogICUInternationalization: Display: ICU TimeZone Detection - Raw Offset: +1:00, Platform Override: ''
LogPluginManager: Mounting plugin HorizonUIPlugin
LogPluginManager: Mounting plugin Paper2D
LogPluginManager: Mounting plugin Niagara
LogPluginManager: Mounting plugin NiagaraExtras
LogPluginManager: Mounting plugin LightPropagationVolume
LogPluginManager: Mounting plugin CryptoKeys
LogPluginManager: Mounting plugin FacialAnimation
LogPluginManager: Mounting plugin DatasmithContent
LogPluginManager: Mounting plugin CharacterAI
LogPluginManager: Mounting plugin HTML5Networking
LogPluginManager: Mounting plugin AvfMedia
LogPluginManager: Mounting plugin ImgMedia
LogPluginManager: Mounting plugin LinearTimecode
LogPluginManager: Mounting plugin MediaCompositing
LogPluginManager: Mounting plugin WmfMedia
LogPluginManager: Mounting plugin TcpMessaging
LogPluginManager: Mounting plugin UdpMessaging
LogPluginManager: Mounting plugin ActorSequence
LogPluginManager: Mounting plugin OnlineSubsystem
LogPluginManager: Mounting plugin OnlineSubsystemNull
LogPluginManager: Mounting plugin OnlineSubsystemUtils
LogPluginManager: Mounting plugin AndroidPermission
LogPluginManager: Mounting plugin AppleARKit
LogPluginManager: Mounting plugin ProceduralMeshComponent
LogPluginManager: Mounting plugin LiveLink
LogPluginManager: Mounting plugin ArchVisCharacter
LogPluginManager: Mounting plugin AudioCapture
LogPluginManager: Mounting plugin CableComponent
LogPluginManager: Mounting plugin CustomMeshComponent
LogPluginManager: Mounting plugin ExampleDeviceProfileSelector
LogPluginManager: Mounting plugin ImmediatePhysics
LogPluginManager: Mounting plugin LocationServicesBPLibrary
LogPluginManager: Mounting plugin MobilePatchingUtils
LogPluginManager: Mounting plugin OculusVR
LogPluginManager: Mounting plugin PhysXVehicles
LogPluginManager: Mounting plugin RuntimePhysXCooking
LogPluginManager: Mounting plugin SteamVR
LogPluginManager: Mounting plugin WindowsMoviePlayer
LogStreaming: Display: Took  0.046s to configure plugins.
LogInit: Using libcurl 7.47.1
LogInit:  - built for x86_64-pc-win32
LogInit:  - supports SSL with OpenSSL/1.0.2g
LogInit:  - supports HTTP deflate (compression) using libz 1.2.8
LogInit:  - other features:
LogInit:      CURL_VERSION_SSL
LogInit:      CURL_VERSION_LIBZ
LogInit:      CURL_VERSION_IPV6
LogInit:      CURL_VERSION_ASYNCHDNS
LogInit:      CURL_VERSION_LARGEFILE
LogInit:      CURL_VERSION_IDN
LogInit:  CurlRequestOptions (configurable via config and command line):
LogInit:  - bVerifyPeer = false  - Libcurl will NOT verify peer certificate
LogInit:  - bUseHttpProxy = false  - Libcurl will NOT use HTTP proxy
LogInit:  - bDontReuseConnections = false  - Libcurl will reuse connections
LogInit:  - CertBundlePath = nullptr  - Libcurl will use whatever was configured at build time.
LogInit:  - MaxHostConnections = 16  - Libcurl will limit the number of connections to a host
LogInit:  - LocalHostAddr = Default
LogInit: WinSock: version 1.1 (2.2), MaxSocks=32767, MaxUdp=65467
LogInit: WinSock: I am DESKTOP-RFLD29U (192.168.178.32:0)
LogInit: Build: ++UE4+Release-4.19-CL-4033788
LogInit: Engine Version: 4.19.2-4033788+++UE4+Release-4.19
LogInit: Compatible Engine Version: 4.19.0-3944462+++UE4+Release-4.19
LogInit: Net CL: 3944462
LogDevObjectVersion: Number of dev versions registered: 18
LogDevObjectVersion:   Dev-Blueprints (B0D832E4-1F89-4F0D-ACCF-7EB736FD4AA2): 10
LogDevObjectVersion:   Dev-Build (E1C64328-A22C-4D53-A36C-8E866417BD8C): 0
LogDevObjectVersion:   Dev-Core (375EC13C-06E4-48FB-B500-84F0262A717E): 2
LogDevObjectVersion:   Dev-Editor (E4B068ED-F494-42E9-A231-DA0B2E46BB41): 23
LogDevObjectVersion:   Dev-Framework (CFFC743F-43B0-4480-9391-14DF171D2073): 33
LogDevObjectVersion:   Dev-Mobile (B02B49B5-BB20-44E9-A304-32B752E40360): 2
LogDevObjectVersion:   Dev-Networking (A4E4105C-59A1-49B5-A7C5-40C4547EDFEE): 0
LogDevObjectVersion:   Dev-Online (39C831C9-5AE6-47DC-9A44-9C173E1C8E7C): 0
LogDevObjectVersion:   Dev-Physics (78F01B33-EBEA-4F98-B9B4-84EACCB95AA2): 0
LogDevObjectVersion:   Dev-Platform (6631380F-2D4D-43E0-8009-CF276956A95A): 0
LogDevObjectVersion:   Dev-Rendering (12F88B9F-8875-4AFC-A67C-D90C383ABD29): 25
LogDevObjectVersion:   Dev-Sequencer (7B5AE74C-D270-4C10-A958-57980B212A5A): 6
LogDevObjectVersion:   Dev-VR (D7296918-1DD6-4BDD-9DE2-64A83CC13884): 1
LogDevObjectVersion:   Dev-LoadTimes (C2A15278-BFE7-4AFE-6C17-90FF531DF755): 1
LogDevObjectVersion:   Private-Geometry (6EACA3D4-40EC-4CC1-B786-8BED09428FC5): 2
LogDevObjectVersion:   Dev-AnimPhys (29E575DD-E0A3-4627-9D10-D276232CDCEA): 16
LogDevObjectVersion:   Dev-ReflectionCapture (6B266CEC-1EC7-4B8F-A30B-E4D90942FC07): 1
LogDevObjectVersion:   Dev-Automation (0DF73D61-A23F-47EA-B727-89E90C41499A): 1
LogInit: Compiled (64-bit): Apr 27 2018 02:10:52
LogInit: Compiled with Visual C++: 19.00.24215.01
LogInit: Build Configuration: Development
LogInit: Branch Name: ++UE4+Release-4.19
LogInit: Command Line:  
LogInit: Base Directory: C:/Users/Kai/Desktop/DeserLevel/WindowsNoEditor/FPS_Base/Binaries/Win64/
LogInit: Installed Engine Build: 0
LogStreaming: Display: Took  0.001s to delete old logs.
LogInit: Presizing for max 2097152 objects, including 0 objects not considered by GC, pre-allocating 0 bytes for permanent pool.
LogStreaming: Display: Async Loading initialized: Event Driven Loader: true, Async Loading Thread: false
LogInit: Object subsystem initialized
[2018.10.11-17.05.35:590][  0]LogInit: Selected Device Profile: [WindowsNoEditor]
[2018.10.11-17.05.35:591][  0]LogInit: Applying CVar settings loaded from the selected device profile: [WindowsNoEditor]
[2018.10.11-17.05.35:597][  0]LogInit: Computer: DESKTOP-RFLD29U
[2018.10.11-17.05.35:597][  0]LogInit: User: Kai
[2018.10.11-17.05.35:597][  0]LogInit: CPU Page size=4096, Cores=8
[2018.10.11-17.05.35:597][  0]LogInit: High frequency timer resolution =3.509032 MHz
[2018.10.11-17.05.35:597][  0]LogMemory: Memory total: Physical=31.9GB (32GB approx)
[2018.10.11-17.05.35:597][  0]LogMemory: Platform Memory Stats for WindowsNoEditor
[2018.10.11-17.05.35:597][  0]LogMemory: Process Physical Memory: 103.54 MB used, 103.54 MB peak
[2018.10.11-17.05.35:597][  0]LogMemory: Process Virtual Memory: 116.75 MB used, 116.75 MB peak
[2018.10.11-17.05.35:597][  0]LogMemory: Physical Memory: 14513.90 MB used,  18201.20 MB free, 32715.10 MB total
[2018.10.11-17.05.35:597][  0]LogMemory: Virtual Memory: 4537.67 MB used,  18201.20 MB free, 134217728.00 MB total
[2018.10.11-17.05.35:616][  0]LogInit: Using OS detected language (de-DE).
[2018.10.11-17.05.35:616][  0]LogInit: Using OS detected locale (de-DE).
[2018.10.11-17.05.35:616][  0]LogTextLocalizationManager: No localization for 'de-DE' exists, so 'en' will be used for the language.
[2018.10.11-17.05.35:617][  0]LogTextLocalizationManager: No localization for 'de-DE' exists, so 'en' will be used for the locale.
[2018.10.11-17.05.35:641][  0]LogStreaming: Display: Took  0.025s to EndInitTextLocalization.
[2018.10.11-17.05.35:665][  0]LogSlate: New Slate User Created.  User Index 0, Is Virtual User: 0
[2018.10.11-17.05.35:665][  0]LogSlate: Slate User Registered.  User Index 0, Is Virtual User: 0
[2018.10.11-17.05.35:681][  0]LogD3D11RHI: D3D11 adapters:
[2018.10.11-17.05.35:753][  0]LogD3D11RHI:    0. 'NVIDIA GeForce GTX 1060 6GB' (Feature Level 11_0)
[2018.10.11-17.05.35:753][  0]LogD3D11RHI:       6052/0/16357 MB DedicatedVideo/DedicatedSystem/SharedSystem, Outputs:3, VendorId:0x10de
[2018.10.11-17.05.35:756][  0]LogD3D11RHI:    1. 'Microsoft Basic Render Driver' (Feature Level 11_0)
[2018.10.11-17.05.35:756][  0]LogD3D11RHI:       0/0/16357 MB DedicatedVideo/DedicatedSystem/SharedSystem, Outputs:0, VendorId:0x1414
[2018.10.11-17.05.35:756][  0]LogD3D11RHI: Chosen D3D11 Adapter: 0
[2018.10.11-17.05.35:768][  0]LogD3D11RHI: Creating new Direct3DDevice
[2018.10.11-17.05.35:768][  0]LogD3D11RHI:     GPU DeviceId: 0x1c03 (for the marketing name, search the web for "GPU Device Id")
[2018.10.11-17.05.35:768][  0]LogWindows: EnumDisplayDevices:
[2018.10.11-17.05.35:768][  0]LogWindows:    0. 'NVIDIA GeForce GTX 1060 6GB' (P:0 D:1)
[2018.10.11-17.05.35:768][  0]LogWindows:    1. 'NVIDIA GeForce GTX 1060 6GB' (P:0 D:1)
[2018.10.11-17.05.35:768][  0]LogWindows:    2. 'NVIDIA GeForce GTX 1060 6GB' (P:1 D:1)
[2018.10.11-17.05.35:769][  0]LogWindows:    3. 'NVIDIA GeForce GTX 1060 6GB' (P:0 D:0)
[2018.10.11-17.05.35:769][  0]LogWindows: DebugString: GetVideoDriverDetailsInvalid PrimaryIsNotTheChoosenAdapter GetVideoDriverDetailsInvalid PrimaryIsNotTheChoosenAdapter GetVideoDriverDetailsInvalid PrimaryIsNotTheChoosenAdapter GetVideoDriverDetailsInvalid PrimaryIsNotTheChoosenAdapter FoundDriverCount:0 
[2018.10.11-17.05.35:769][  0]LogD3D11RHI:     Adapter Name: NVIDIA GeForce GTX 1060 6GB
[2018.10.11-17.05.35:769][  0]LogD3D11RHI:   Driver Version: Unknown (internal:Unknown, unified:Unknown)
[2018.10.11-17.05.35:769][  0]LogD3D11RHI:      Driver Date: Unknown
[2018.10.11-17.05.35:769][  0]LogRHI: Texture pool is 4236 MB (70% of 6052 MB)
[2018.10.11-17.05.35:823][  0]LogD3D11RHI: [Aftermath] Aftermath enabled and primed
[2018.10.11-17.05.35:823][  0]LogD3D11RHI: [Aftermath] Aftermath enabled and primed
[2018.10.11-17.05.35:823][  0]LogD3D11RHI: Async texture creation enabled
[2018.10.11-17.05.35:848][  0]LogD3D11RHI: GPU Timing Frequency: 1000.000000 (Debug: 2 2)
[2018.10.11-17.05.36:002][  0]LogMaterial: Verifying Global Shaders for PCD3D_SM5
[2018.10.11-17.05.36:002][  0]LogSlate: Using Freetype 2.6.0
[2018.10.11-17.05.36:002][  0]LogSlate: SlateFontCache - WITH_FREETYPE: 1, WITH_HARFBUZZ: 1
[2018.10.11-17.05.36:002][  0]LogSlate: SlateFontCache - WITH_FREETYPE: 1, WITH_HARFBUZZ: 1
[2018.10.11-17.05.36:050][  0]LogAssetRegistry: FAssetRegistry took 0.0124 seconds to start up
[2018.10.11-17.05.36:156][  0]LogPackageLocalizationCache: Processed 11 localized package path(s) for 1 prioritized culture(s) in 0.005453 seconds
[2018.10.11-17.05.36:156][  0]LogPakFile: New pak file ../../../FPS_Base/Content/Paks/FPS_Base-WindowsNoEditor.pak added to pak precacher.
[2018.10.11-17.05.36:158][  0]LogInit: Selected Device Profile: [WindowsNoEditor]
[2018.10.11-17.05.36:191][  0]LogNetVersion: FPS_Base , NetCL: 3944462, EngineNetVer: 2, GameNetVer: 0 (Checksum: 3988410194)
[2018.10.11-17.05.36:370][  0]LogMoviePlayer: Initializing movie player
[2018.10.11-17.05.36:436][  0]LogStreaming: Error: Couldn't find file for package /Niagara/Functions/Localspace/ENiagaraCoordinateSpace requested by async loading code. NameToLoad: /Niagara/Functions/Localspace/ENiagaraCoordinateSpace
[2018.10.11-17.05.36:436][  0]LogStreaming: Error: Found 0 dependent packages...
[2018.10.11-17.05.36:436][  0]LogNiagara: Warning: Could not find additional parameter/payload enum: /Niagara/Functions/Localspace/ENiagaraCoordinateSpace.ENiagaraCoordinateSpace
[2018.10.11-17.05.36:436][  0]LogStreaming: Error: Couldn't find file for package /Niagara/Functions/Localspace/ENiagaraOrientationAxis requested by async loading code. NameToLoad: /Niagara/Functions/Localspace/ENiagaraOrientationAxis
[2018.10.11-17.05.36:436][  0]LogStreaming: Error: Found 0 dependent packages...
[2018.10.11-17.05.36:436][  0]LogNiagara: Warning: Could not find additional parameter/payload enum: /Niagara/Functions/Localspace/ENiagaraOrientationAxis.ENiagaraOrientationAxis
[2018.10.11-17.05.36:536][  0]LogAndroidPermission: UAndroidPermissionCallbackProxy::GetInstance
[2018.10.11-17.05.36:536][  0]LogOcInput: OculusInput pre-init called
[2018.10.11-17.05.36:540][  0]LogUObjectArray: 33284 objects as part of root set at end of initial load.
[2018.10.11-17.05.36:540][  0]LogUObjectAllocator: 6216464 out of 0 bytes used by permanent object pool.
[2018.10.11-17.05.36:540][  0]LogUObjectArray: CloseDisregardForGC: 0/0 objects in disregard for GC pool
[2018.10.11-17.05.36:552][  0]LogEngine: Initializing Engine...
[2018.10.11-17.05.36:552][  0]LogHMD: Oculus plugin initialized. Version: 4.19.2-4033788+++UE4+Release-4.19, OVRPlugin: 1.21.0
[2018.10.11-17.05.36:564][  0]LogStats: UGameplayTagsManager::ConstructGameplayTagTree: Construct from data asset -  0.000 s
[2018.10.11-17.05.36:564][  0]LogStats: UGameplayTagsManager::ConstructGameplayTagTree: GameplayTagTreeChangedEvent.Broadcast -  0.000 s
[2018.10.11-17.05.36:691][  0]LogInit: XAudio2 using 'Lautsprecher (Logitech G430 Gaming Headset)' : 2 channels at 44.1 kHz using 16 bits per sample (channel mask 0x3)
[2018.10.11-17.05.36:710][  0]LogInit: FAudioDevice initialized.
[2018.10.11-17.05.36:722][  0]LogInit: Texture streaming: Enabled
[2018.10.11-17.05.36:731][  0]LogInit: Display: Game Engine Initialized.
[2018.10.11-17.05.36:731][  0]LogGameplayTags: Display: UGameplayTagsManager::DoneAddingNativeTags. DelegateIsBound: 0
[2018.10.11-17.05.36:731][  0]LogStats: UGameplayTagsManager::ConstructGameplayTagTree: Construct from data asset -  0.000 s
[2018.10.11-17.05.36:731][  0]LogStats: UGameplayTagsManager::ConstructGameplayTagTree: GameplayTagTreeChangedEvent.Broadcast -  0.000 s
[2018.10.11-17.05.36:742][  0]LogInit: Display: Starting Game.
[2018.10.11-17.05.36:742][  0]LogNet: Browse: /Game/Maps/Menu/MenuLevel?Name=Player
[2018.10.11-17.05.36:742][  0]LogLoadingSplash: Loading begins
[2018.10.11-17.05.36:742][  0]LogLoad: LoadMap: /Game/Maps/Menu/MenuLevel?Name=Player
[2018.10.11-17.05.36:762][  0]LogAIModule: Creating AISystem for world MenuLevel
[2018.10.11-17.05.36:762][  0]LogLoad: Game class is 'MMGM_C'
[2018.10.11-17.05.36:763][  0]LogWorld: Bringing World /Game/Maps/Menu/MenuLevel.MenuLevel up for play (max tick rate 0) at 2018.10.11-19.05.36
[2018.10.11-17.05.36:763][  0]LogWorld: Bringing up level for play took: 0.000437
[2018.10.11-17.05.36:764][  0]LogGameMode: FindPlayerStart: PATHS NOT DEFINED or NO PLAYERSTART with positive rating
[2018.10.11-17.05.36:765][  0]LogUMG: Display: Widget Class MMJoin_C - Loaded Fast Template.
[2018.10.11-17.05.36:766][  0]LogSlate: Took 0.000145 seconds to synchronously load lazily loaded font '../../../Engine/Content/Slate/Fonts/Roboto-Regular.ttf' (155K)
[2018.10.11-17.05.36:767][  0]LogLoadingSplash: Loading ends
[2018.10.11-17.05.36:767][  0]LogLoad: Took 0.024258 seconds to LoadMap(/Game/Maps/Menu/MenuLevel)
[2018.10.11-17.05.36:767][  0]LogSlate: Took 0.000171 seconds to synchronously load lazily loaded font '../../../Engine/Content/EngineFonts/Faces/RobotoBold.ufont' (160K)
[2018.10.11-17.05.36:855][  0]LogLoad: (Engine Initialization) Total time: 2.25 seconds
[2018.10.11-17.05.36:878][  0]LogRenderer: Reallocating scene render targets to support 1920x1080 Format 10 NumSamples 1 (Frame:1).
[2018.10.11-17.05.36:925][  0]LogOcInput: OculusInput is initialized
[2018.10.11-17.05.36:928][  0]LogContentStreaming: Texture pool size now 1000 MB
[2018.10.11-17.05.39:712][172]LogSlate: FSceneViewport::OnFocusLost() reason 0
[2018.10.11-17.05.40:647][230]LogNetVersion: FPS_Base 1.0.0.0, NetCL: 3944462, EngineNetVer: 2, GameNetVer: 0 (Checksum: 2896823572)
[2018.10.11-17.05.40:648][230]LogBlueprintUserMessages: [GameI_C_0] Proceeding
[2018.10.11-17.05.40:648][230]LogNet: Browse: /Game/Maps/Desert1?listen
[2018.10.11-17.05.40:648][230]LogLoadingSplash: Loading begins
[2018.10.11-17.05.40:649][230]LogLoad: LoadMap: /Game/Maps/Desert1?listen
[2018.10.11-17.05.40:649][230]LogSlate: Took 0.000207 seconds to synchronously load lazily loaded font '../../../Engine/Content/EngineFonts/Faces/RobotoRegular.ufont' (155K)
[2018.10.11-17.05.40:750][230]LogAIModule: Creating AISystem for world Desert1
[2018.10.11-17.05.40:750][230]LogLoad: Game class is 'TDM_GM_C'
[2018.10.11-17.05.40:750][230]LogTemp: Display: ParseSettings for GameNetDriver
[2018.10.11-17.05.40:750][230]LogTemp: Display: ParseSettings for IpNetDriver_0
[2018.10.11-17.05.40:750][230]LogTemp: Display: ParseSettings for GameNetDriver
[2018.10.11-17.05.40:751][230]LogInit: WinSock: Socket queue 131072 / 131072
[2018.10.11-17.05.40:751][230]PacketHandlerLog: Loaded PacketHandler component: Engine.EngineHandlerComponentFactory (StatelessConnectHandlerComponent)
[2018.10.11-17.05.40:751][230]LogNet: GameNetDriver IpNetDriver_0 IpNetDriver listening on port 7777
[2018.10.11-17.05.40:766][230]LogWorld: Bringing World /Game/Maps/Desert1.Desert1 up for play (max tick rate 0) at 2018.10.11-19.05.40
[2018.10.11-17.05.40:770][230]LogWorld: Bringing up level for play took: 0.018170
[2018.10.11-17.05.40:774][230]LogUMG: Display: Widget Class CharacterStats_C - Loaded Fast Template.
[2018.10.11-17.05.40:777][230]LogUMG: Display: Widget Class Crosshair_C - Loaded Fast Template.
[2018.10.11-17.05.40:777][230]LogUMG: Display: Widget Class RespawnMenu_C - Loaded Fast Template.
[2018.10.11-17.05.40:777][230]LogUMG: Display: Widget Class ChatWindow_C - Loaded Fast Template.
[2018.10.11-17.05.40:777][230]LogUMG: Display: Widget Class PointsUI_C - Loaded Fast Template.
[2018.10.11-17.05.40:778][230]LogUMG: Display: Widget Class InGameMenu_C - Loaded Fast Template.
[2018.10.11-17.05.40:778][230]LogLoadingSplash: Loading ends
[2018.10.11-17.05.40:779][230]LogLoad: Took 0.130633 seconds to LoadMap(/Game/Maps/Desert1)
[2018.10.11-17.05.40:786][230]LogSlate: Took 0.000177 seconds to synchronously load lazily loaded font '../../../Engine/Content/EngineFonts/Faces/RobotoBoldItalic.ufont' (162K)
[2018.10.11-17.05.40:790][230]LogUMG: Display: Widget Class ChatMessage_C - Loaded Fast Template.
[2018.10.11-17.05.56:296][188]LogNet: NotifyAcceptingConnection accepted from: 192.168.178.32:55100
[2018.10.11-17.05.56:296][188]LogHandshake: SendConnectChallenge. Timestamp: 15.664607, Cookie: 247106101047007011157253093241013129075189114003097010126172
[2018.10.11-17.05.56:312][189]LogNet: NotifyAcceptingConnection accepted from: 192.168.178.32:55100
[2018.10.11-17.05.56:312][189]LogHandshake: SendChallengeAck. InCookie: 247106101047007011157253093241013129075189114003097010126172
[2018.10.11-17.05.56:312][189]LogNet: Server accepting post-challenge connection from: 192.168.178.32:55100
[2018.10.11-17.05.56:312][189]PacketHandlerLog: Loaded PacketHandler component: Engine.EngineHandlerComponentFactory (StatelessConnectHandlerComponent)
[2018.10.11-17.05.56:312][189]LogNet: NotifyAcceptedConnection: Name: Desert1, TimeStamp: 10/11/18 19:05:56, [UNetConnection] RemoteAddr: 192.168.178.32:55100, Name: IpConnection_0, Driver: GameNetDriver IpNetDriver_0, IsServer: YES, PC: NULL, Owner: NULL, UniqueId: INVALID
[2018.10.11-17.05.56:312][189]LogNet: AddClientConnection: Added client connection: [UNetConnection] RemoteAddr: 192.168.178.32:55100, Name: IpConnection_0, Driver: GameNetDriver IpNetDriver_0, IsServer: YES, PC: NULL, Owner: NULL, UniqueId: INVALID
[2018.10.11-17.05.56:328][190]LogNet: NotifyAcceptingChannel Control 0 server World /Game/Maps/Desert1.Desert1: Accepted
[2018.10.11-17.05.56:328][190]LogNet: Remote platform little endian=1
[2018.10.11-17.05.56:328][190]LogNet: This platform little endian=1
[2018.10.11-17.05.56:344][191]LogNet: Login request: /Game/Maps/Menu/MenuLevel?Name=DESKTOP-RFLD29U-B45D1E5D48EEAA6E6A3F299A10484846 userId: DESKTOP-RFLD29U-B45D1E5D48EEAA6E6A3F299A10484846
[2018.10.11-17.05.56:360][192]LogNet: Client netspeed is 10000
[2018.10.11-17.05.56:473][199]LogNet: Join request: /Game/Maps/Menu/MenuLevel?Name=DESKTOP-RFLD29U-B45D1E5D48EEAA6E6A3F299A10484846?SplitscreenCount=1
[2018.10.11-17.05.56:476][199]LogNet: Join succeeded: DESKTOP-RFLD29U-B45D
[2018.10.11-17.06.09:511][912]LogNet: UChannel::ReceivedSequencedBunch: Bunch.bClose == true. ChIndex == 0. Calling ConditionalCleanUp.
[2018.10.11-17.06.09:511][912]LogNet: UChannel::CleanUp: ChIndex == 0. Closing connection. [UChannel] ChIndex: 0, Closing: 0 [UNetConnection] RemoteAddr: 192.168.178.32:55100, Name: IpConnection_0, Driver: GameNetDriver IpNetDriver_0, IsServer: YES, PC: StandardPC_C_1, Owner: StandardPC_C_1, UniqueId: DESKTOP-RFLD29U-B45D1E5D48EEAA6E6A3F299A10484846
[2018.10.11-17.06.09:511][912]LogNet: UNetConnection::Close: [UNetConnection] RemoteAddr: 192.168.178.32:55100, Name: IpConnection_0, Driver: GameNetDriver IpNetDriver_0, IsServer: YES, PC: StandardPC_C_1, Owner: StandardPC_C_1, UniqueId: DESKTOP-RFLD29U-B45D1E5D48EEAA6E6A3F299A10484846, Channels: 11, Time: 2018.10.11-17.06.09
[2018.10.11-17.06.09:511][912]LogNet: UChannel::Close: Sending CloseBunch. ChIndex == 0. Name: [UChannel] ChIndex: 0, Closing: 0 [UNetConnection] RemoteAddr: 192.168.178.32:55100, Name: IpConnection_0, Driver: GameNetDriver IpNetDriver_0, IsServer: YES, PC: StandardPC_C_1, Owner: StandardPC_C_1, UniqueId: DESKTOP-RFLD29U-B45D1E5D48EEAA6E6A3F299A10484846
[2018.10.11-17.06.47:948][295]LogSlate: Request Window 'FPS_Base (64-bit, PCD3D_SM5) ' being destroyed
[2018.10.11-17.06.47:977][295]LogSlate: Window 'FPS_Base (64-bit, PCD3D_SM5) ' being destroyed
[2018.10.11-17.06.47:977][295]LogWindowsTextInputMethodSystem: Display: IME system now deactivated.
[2018.10.11-17.06.47:981][295]LogEngine: All Windows Closed
[2018.10.11-17.06.47:981][295]LogWindows: FPlatformMisc::RequestExit(0)
[2018.10.11-17.06.47:988][296]LogNet: World NetDriver shutdown IpNetDriver_0 [GameNetDriver]
[2018.10.11-17.06.47:988][296]LogNet: DestroyNamedNetDriver IpNetDriver_0 [GameNetDriver]
[2018.10.11-17.06.47:988][296]LogExit: GameNetDriver IpNetDriver_0 shut down
[2018.10.11-17.06.48:604][296]LogSlate: Slate User Destroyed.  User Index 0, Is Virtual User: 0
[2018.10.11-17.06.48:604][296]LogExit: Preparing to exit.
[2018.10.11-17.06.48:604][296]LogMoviePlayer: Shutting down movie player
[2018.10.11-17.06.48:613][296]LogExit: Game engine shut down
[2018.10.11-17.06.48:641][296]LogExit: Object subsystem successfully closed.
[2018.10.11-17.06.48:652][296]LogD3D11RHI: Shutdown
[2018.10.11-17.06.48:652][296]LogD3D11RHI: CleanupD3DDevice
[2018.10.11-17.06.48:654][296]LogD3D11RHI: ~FD3D11DynamicRHI
[2018.10.11-17.06.48:654][296]LogModuleManager: Shutting down and abandoning module AutomationController (188)
[2018.10.11-17.06.48:654][296]LogModuleManager: Shutting down and abandoning module AutomationWorker (186)
[2018.10.11-17.06.48:654][296]LogModuleManager: Shutting down and abandoning module Voice (184)
[2018.10.11-17.06.48:654][296]LogModuleManager: Shutting down and abandoning module AIModule (182)
[2018.10.11-17.06.48:654][296]LogModuleManager: Shutting down and abandoning module GameplayDebugger (181)
[2018.10.11-17.06.48:654][296]LogModuleManager: Shutting down and abandoning module WmfMediaFactory (178)
[2018.10.11-17.06.48:654][296]LogModuleManager: Shutting down and abandoning module OpenExrWrapper (176)
[2018.10.11-17.06.48:654][296]LogModuleManager: Shutting down and abandoning module ImgMediaFactory (174)
[2018.10.11-17.06.48:654][296]LogModuleManager: Shutting down and abandoning module AvfMediaFactory (172)
[2018.10.11-17.06.48:654][296]LogModuleManager: Shutting down and abandoning module CharacterAI (170)
[2018.10.11-17.06.48:654][296]LogModuleManager: Shutting down and abandoning module SessionServices (168)
[2018.10.11-17.06.48:654][296]LogModuleManager: Shutting down and abandoning module MovieSceneTracks (166)
[2018.10.11-17.06.48:654][296]LogModuleManager: Shutting down and abandoning module MovieScene (164)
[2018.10.11-17.06.48:655][296]LogModuleManager: Shutting down and abandoning module GeometryCache (162)
[2018.10.11-17.06.48:655][296]LogModuleManager: Shutting down and abandoning module StreamingPauseRendering (160)
[2018.10.11-17.06.48:655][296]LogModuleManager: Shutting down and abandoning module AnalyticsET (158)
[2018.10.11-17.06.48:655][296]LogModuleManager: Shutting down and abandoning module ProfilerService (156)
[2018.10.11-17.06.48:890][296]LogModuleManager: Shutting down and abandoning module TaskGraph (154)
[2018.10.11-17.06.48:890][296]LogModuleManager: Shutting down and abandoning module SteamVRController (152)
[2018.10.11-17.06.48:890][296]LogModuleManager: Shutting down and abandoning module OculusInput (150)
[2018.10.11-17.06.48:890][296]LogModuleManager: Shutting down and abandoning module MobilePatchingUtils (148)
[2018.10.11-17.06.48:890][296]LogModuleManager: Shutting down and abandoning module CustomMeshComponent (146)
[2018.10.11-17.06.48:890][296]LogModuleManager: Shutting down and abandoning module CableComponent (144)
[2018.10.11-17.06.48:890][296]LogModuleManager: Shutting down and abandoning module AudioCapture (142)
[2018.10.11-17.06.48:890][296]LogModuleManager: Shutting down and abandoning module ArchVisCharacter (140)
[2018.10.11-17.06.48:890][296]LogModuleManager: Shutting down and abandoning module ProceduralMeshComponent (138)
[2018.10.11-17.06.48:890][296]LogModuleManager: Shutting down and abandoning module AndroidPermission (136)
[2018.10.11-17.06.48:890][296]LogModuleManager: Shutting down and abandoning module MediaCompositing (134)
[2018.10.11-17.06.48:890][296]LogModuleManager: Shutting down and abandoning module LinearTimecode (132)
[2018.10.11-17.06.48:890][296]LogModuleManager: Shutting down and abandoning module ImgMedia (130)
[2018.10.11-17.06.48:891][296]LogModuleManager: Shutting down and abandoning module HTML5Networking (128)
[2018.10.11-17.06.48:891][296]LogModuleManager: Shutting down and abandoning module DatasmithContent (126)
[2018.10.11-17.06.48:891][296]LogModuleManager: Shutting down and abandoning module HorizonUI (124)
[2018.10.11-17.06.48:891][296]LogModuleManager: Shutting down and abandoning module FPS_Base (122)
[2018.10.11-17.06.48:891][296]LogModuleManager: Shutting down and abandoning module RuntimePhysXCooking (120)
[2018.10.11-17.06.48:891][296]LogModuleManager: Shutting down and abandoning module PhysXVehicles (118)
[2018.10.11-17.06.48:891][296]LogModuleManager: Shutting down and abandoning module LocationServicesBPLibrary (116)
[2018.10.11-17.06.48:891][296]LogModuleManager: Shutting down and abandoning module ImmediatePhysics (114)
[2018.10.11-17.06.48:891][296]LogModuleManager: Shutting down and abandoning module LiveLink (112)
[2018.10.11-17.06.49:478][296]LogModuleManager: Shutting down and abandoning module ActorSequence (110)
[2018.10.11-17.06.49:478][296]LogModuleManager: Shutting down and abandoning module UdpMessaging (108)
[2018.10.11-17.06.49:478][296]LogModuleManager: Shutting down and abandoning module TcpMessaging (106)
[2018.10.11-17.06.49:478][296]LogModuleManager: Shutting down and abandoning module FacialAnimation (104)
[2018.10.11-17.06.49:478][296]LogModuleManager: Shutting down and abandoning module LightPropagationVolumeRuntime (102)
[2018.10.11-17.06.49:478][296]LogModuleManager: Shutting down and abandoning module Niagara (100)
[2018.10.11-17.06.49:478][296]LogModuleManager: Shutting down and abandoning module Paper2D (98)
[2018.10.11-17.06.49:478][296]LogModuleManager: Shutting down and abandoning module WindowsMoviePlayer (96)
[2018.10.11-17.06.49:478][296]LogModuleManager: Shutting down and abandoning module WmfMedia (94)
[2018.10.11-17.06.49:478][296]LogModuleManager: Shutting down and abandoning module PacketHandler (92)
[2018.10.11-17.06.49:478][296]LogModuleManager: Shutting down and abandoning module ClothingSystemRuntime (90)
[2018.10.11-17.06.49:478][296]LogModuleManager: Shutting down and abandoning module MediaAssets (88)
[2018.10.11-17.06.49:478][296]LogModuleManager: Shutting down and abandoning module Overlay (86)
[2018.10.11-17.06.49:478][296]LogModuleManager: Shutting down and abandoning module UMG (84)
[2018.10.11-17.06.49:478][296]LogModuleManager: Shutting down and abandoning module SlateReflector (82)
[2018.10.11-17.06.49:478][296]LogModuleManager: Shutting down and abandoning module Slate (80)
[2018.10.11-17.06.49:478][296]LogModuleManager: Shutting down and abandoning module MRMesh (78)
[2018.10.11-17.06.49:478][296]LogModuleManager: Shutting down and abandoning module Messaging (76)
[2018.10.11-17.06.49:478][296]LogModuleManager: Shutting down and abandoning module HeadMountedDisplay (74)
[2018.10.11-17.06.49:478][296]LogModuleManager: Shutting down and abandoning module XAudio2 (72)
[2018.10.11-17.06.49:478][296]LogModuleManager: Shutting down and abandoning module Networking (70)
[2018.10.11-17.06.49:478][296]LogModuleManager: Shutting down and abandoning module Core (68)
[2018.10.11-17.06.49:478][296]LogModuleManager: Shutting down and abandoning module LevelSequence (66)
[2018.10.11-17.06.49:478][296]LogModuleManager: Shutting down and abandoning module Media (64)
[2018.10.11-17.06.49:485][296]LogModuleManager: Shutting down and abandoning module ImageWrapper (60)
[2018.10.11-17.06.49:485][296]LogModuleManager: Shutting down and abandoning module InputCore (58)
[2018.10.11-17.06.49:485][296]LogModuleManager: Shutting down and abandoning module PhysXCooking (56)
[2018.10.11-17.06.49:485][296]LogModuleManager: Shutting down and abandoning module SteamVR (54)
[2018.10.11-17.06.49:485][296]LogModuleManager: Shutting down and abandoning module OculusHMD (52)
[2018.10.11-17.06.49:485][296]LogModuleManager: Shutting down and abandoning module ExampleDeviceProfileSelector (50)
[2018.10.11-17.06.49:485][296]LogModuleManager: Shutting down and abandoning module AppleARKit (48)
[2018.10.11-17.06.49:485][296]LogModuleManager: Shutting down and abandoning module AugmentedReality (47)
[2018.10.11-17.06.49:485][296]LogModuleManager: Shutting down and abandoning module OnlineSubsystem (42)
[2018.10.11-17.06.49:485][296]LogOnline: Display: OSS: FOnlineSubsystemNull::Shutdown()
[2018.10.11-17.06.49:485][296]LogOnline: Display: OSS: FOnlineAsyncTaskManager::Stop() ActiveTask:0000000000000000 Tasks[0/0]
[2018.10.11-17.06.49:485][296]LogOnline: Display: OSS: FOnlineAsyncTaskManager::Exit() started
[2018.10.11-17.06.49:485][296]LogOnline: Display: OSS: FOnlineAsyncTaskManager::Exit() finished
[2018.10.11-17.06.49:485][296]LogModuleManager: Shutting down and abandoning module HTTP (37)
[2018.10.11-17.06.49:485][296]LogHttp: Display: Http module shutting down, but needs to wait on 1 outstanding Http requests:
[2018.10.11-17.06.49:485][296]LogHttp: Display: 	verb=[POST] url=[https://datarouter.ol.epicgames.com/datarouter/api/v1/public/data?SessionID=%7BB19E3553-431B-D2B2-FC1D-05ACD1425303%7D&AppID=UEGame.Rocket.Release%7CFA3624494CD377E30FCED5A3026A6777%7CUE4Game&AppVersion=4.19.2-4033788%2B%2B%2BUE4%2BRelease-4.19&UserID=ANON-%7BC85EB948-413C-A227-1145-7598D582DBAF%7D%7C%7C&AppEnvironment=datacollector-binary&UploadType=eteventstream] status=Processing
[2018.10.11-17.06.49:505][296]LogModuleManager: Shutting down and abandoning module SSL (36)
[2018.10.11-17.06.49:506][296]LogModuleManager: Shutting down and abandoning module NiagaraVertexFactories (32)
[2018.10.11-17.06.49:506][296]LogModuleManager: Shutting down and abandoning module NiagaraShader (30)
[2018.10.11-17.06.49:506][296]LogModuleManager: Shutting down and abandoning module ShaderCore (28)
[2018.10.11-17.06.49:506][296]LogModuleManager: Shutting down and abandoning module Landscape (26)
[2018.10.11-17.06.49:506][296]LogModuleManager: Shutting down and abandoning module SlateRHIRenderer (24)
[2018.10.11-17.06.49:506][296]LogModuleManager: Shutting down and abandoning module OpenGLDrv (22)
[2018.10.11-17.06.49:506][296]LogModuleManager: Shutting down and abandoning module D3D11RHI (20)
[2018.10.11-17.06.49:506][296]LogModuleManager: Shutting down and abandoning module AnimGraphRuntime (18)
[2018.10.11-17.06.49:506][296]LogModuleManager: Shutting down and abandoning module Renderer (16)
[2018.10.11-17.06.49:506][296]LogModuleManager: Shutting down and abandoning module Engine (14)
[2018.10.11-17.06.49:506][296]LogModuleManager: Shutting down and abandoning module CoreUObject (12)
[2018.10.11-17.06.49:506][296]LogModuleManager: Shutting down and abandoning module NetworkFile (10)
[2018.10.11-17.06.49:506][296]LogModuleManager: Shutting down and abandoning module CookedIterativeFile (8)
[2018.10.11-17.06.49:506][296]LogModuleManager: Shutting down and abandoning module StreamingFile (6)
[2018.10.11-17.06.49:506][296]LogModuleManager: Shutting down and abandoning module SandboxFile (4)
[2018.10.11-17.06.49:506][296]LogModuleManager: Shutting down and abandoning module PakFile (2)
[2018.10.11-17.06.49:509][296]LogExit: Exiting.
[2018.10.11-17.06.49:510][296]Log file closed, 10/11/18 19:06:49
